%YAML 1.1
%TAG !u! tag:unity3d.com,2011:
--- !u!114 &11400000
MonoBehaviour:
  m_ObjectHideFlags: 0
  m_CorrespondingSourceObject: {fileID: 0}
  m_PrefabInstance: {fileID: 0}
  m_PrefabAsset: {fileID: 0}
  m_GameObject: {fileID: 0}
  m_Enabled: 1
  m_EditorHideFlags: 0
  m_Script: {fileID: 11500000, guid: beca6f22d255a48f39bc4e58cba04fb0, type: 3}
  m_Name: Shallot
  m_EditorClassIdentifier: 
  itemId: 10
  itemName: Shallot
  icon: {fileID: 21300000, guid: 178708f3d7b02452f89c9a18a2aa0414, type: 3}
  preperationTime: 9
